logs/haha.log
~/../zxluan/verilator/bin/verilator -Mdir build --timescale 1ns/1ps --timescale-override 1ns/1ps --prof-cfuncs -CFLAGS -DVL_DEBUG --Wno-WIDTH --Wno-PINMISSING --Wno-VARHIDDEN --Wno-UNUSED --Wno-STMTDLY --Wno-ASSIGNDLY --Wno-EOFNEWLINE --Wno-IMPLICIT --Wno-LITENDIAN --Wno-SELRANGE --Wno-UNOPTFLAT --Wno-WIDTHCONCAT --Wno-REDEFMACRO --Wno-REALCVT --Wno-LATCH --Wno-CASEINCOMPLETE --cc --trace --exe --build +define+VERILATOR+DPRAM64_2R1W+SYNTHESIS+LSU_V1+HEX_DIR="\"dv/isa/hex/rv64ui/sb.hex\"" --top-module tb_top ./tb_top.sv ./rcu/rcu.sv ./rcu/unit/counter/configurable_counter.v ./rcu/unit/counter/counter.v ./rcu/unit/f2if2o/f2if2o.v ./rcu/unit/f2if2o/f2if2o_freelist.v ./rcu/unit/fifo/fifo.v ./rcu/unit/fifo/fifo_for_freelist.v ./rcu/unit/oldest2_abitter/arbiter_base.v ./rcu/unit/oldest2_abitter/oldest2_abitter.v ./rcu/unit/oldest2_abitter_bps/oldest2_abitter_bps.v ./rcu/unit/oldest2_abitter_bps_lss/oldest2_abitter_bps_lss.v ./rcu/unit/physical_regfile/physical_regfile.sv ./fetch/btb.v ./fetch/fetch.v ./fetch/gshare.v ./fetch/ins_buffer.v ./decode/decode.v ./decode/rv_decoder.v ./decode/rvc_decoder.v ./fu/alu.v ./fu/div.v ./fu/fu.v ./fu/lowRisc_mul_fast.v ./fu/md.v ./csr/csr.sv ./csr/csr_regfile.v ./csr/excep_ctrl.v ./rvh_mmu/rvh_dtlb.v ./rvh_mmu/rvh_itlb.v ./rvh_mmu/rvh_mmu.v ./rvh_mmu/rvh_mmu_axi_wrapper.v ./rvh_mmu/rvh_mmu_mshr.v ./rvh_mmu/rvh_monolithic_mmu.v ./rvh_mmu/rvh_pmp/rvh_pmp.v ./rvh_mmu/rvh_pmp/rvh_pmp_entry.v ./rvh_mmu/rvh_ptw.v ./rvh_mmu/rvh_tlb_arbiter.v ./utils/commoncell/src/Basic/hw/CountOne.sv    ./utils/commoncell/src/Basic/hw/MuxOH.sv       ./utils/commoncell/src/Basic/hw/OH2UInt.sv     ./utils/commoncell/src/Basic/hw/PLRU.sv        ./utils/commoncell/src/Basic/hw/PLRUTree.sv    ./utils/commoncell/src/Basic/hw/PriorityMux.sv ./utils/commoncell/src/Basic/hw/StreamFIFO.sv  ./utils/commoncell/src/Basic/hw/SyncFIFO.sv    ./utils/commoncell/src/Queue/hw/AgeMatrixSelector.sv ./utils/commoncell/src/Queue/hw/QueueManager.sv ./utils/commoncell/src/Queue/hw/StaticPrioritySelector.sv ./utils/commoncell/src/Queue/hw/FIAO/FIAOWithAgeMatrix.sv ./utils/commoncell/src/Queue/hw/FIAO/FIAOWithQueueManager.sv ./utils/commoncell/src/Queue/hw/FIFO/MultiPortStreamFIFO.sv ./utils/commoncell/src/StdDFF/dv/DFFUncertainChecker.sv ./utils/commoncell/src/StdDFF/hw/DFF.sv ./utils/commoncell/src/StdDFF/hw/DFFE.sv ./utils/commoncell/src/StdDFF/hw/DFFR.sv ./utils/commoncell/src/StdDFF/hw/DFFRE.sv ./utils/commoncell/counter2.sv ./lsuv1/lsu_agu.v ./lsuv1/lsu_bus_ctrl.v ./lsuv1/lsu_lsq.v ./lsuv1/lsu_lsq_entry.v ./lsuv1/lsu_mc.v ./lsuv1/lsu_pma_checker.v ./lsuv1/lsu_wb_arb.v ./lsuv1/lsuv1.v params.vh utils/commoncell/dpram64_2r1w.v core.sv ./dv/core_sim.cpp
make[1]: Entering directory '/work/stu/yzhang/workspace/GreenRio2_Core/build'
ccache g++  -I.  -MMD -I/work/home/zxluan/verilator/share/verilator/include -I/work/home/zxluan/verilator/share/verilator/include/vltstd -DVM_COVERAGE=0 -DVM_SC=0 -DVM_TRACE=1 -DVM_TRACE_FST=0 -DVM_TRACE_VCD=1 -faligned-new -fcf-protection=none -Wno-bool-operation -Wno-sign-compare -Wno-uninitialized -Wno-unused-but-set-variable -Wno-unused-parameter -Wno-unused-variable -Wno-shadow     -DVL_DEBUG  -pg -std=gnu++14 -Os -c -o core_sim.o ../dv/core_sim.cpp
ccache g++  -I.  -MMD -I/work/home/zxluan/verilator/share/verilator/include -I/work/home/zxluan/verilator/share/verilator/include/vltstd -DVM_COVERAGE=0 -DVM_SC=0 -DVM_TRACE=1 -DVM_TRACE_FST=0 -DVM_TRACE_VCD=1 -faligned-new -fcf-protection=none -Wno-bool-operation -Wno-sign-compare -Wno-uninitialized -Wno-unused-but-set-variable -Wno-unused-parameter -Wno-unused-variable -Wno-shadow     -DVL_DEBUG  -pg -std=gnu++14 -Os -c -o verilated.o /work/home/zxluan/verilator/share/verilator/include/verilated.cpp
ccache g++  -I.  -MMD -I/work/home/zxluan/verilator/share/verilator/include -I/work/home/zxluan/verilator/share/verilator/include/vltstd -DVM_COVERAGE=0 -DVM_SC=0 -DVM_TRACE=1 -DVM_TRACE_FST=0 -DVM_TRACE_VCD=1 -faligned-new -fcf-protection=none -Wno-bool-operation -Wno-sign-compare -Wno-uninitialized -Wno-unused-but-set-variable -Wno-unused-parameter -Wno-unused-variable -Wno-shadow     -DVL_DEBUG  -pg -std=gnu++14 -Os -c -o verilated_dpi.o /work/home/zxluan/verilator/share/verilator/include/verilated_dpi.cpp
ccache g++  -I.  -MMD -I/work/home/zxluan/verilator/share/verilator/include -I/work/home/zxluan/verilator/share/verilator/include/vltstd -DVM_COVERAGE=0 -DVM_SC=0 -DVM_TRACE=1 -DVM_TRACE_FST=0 -DVM_TRACE_VCD=1 -faligned-new -fcf-protection=none -Wno-bool-operation -Wno-sign-compare -Wno-uninitialized -Wno-unused-but-set-variable -Wno-unused-parameter -Wno-unused-variable -Wno-shadow     -DVL_DEBUG  -pg -std=gnu++14 -Os -c -o verilated_vcd_c.o /work/home/zxluan/verilator/share/verilator/include/verilated_vcd_c.cpp
ccache g++  -I.  -MMD -I/work/home/zxluan/verilator/share/verilator/include -I/work/home/zxluan/verilator/share/verilator/include/vltstd -DVM_COVERAGE=0 -DVM_SC=0 -DVM_TRACE=1 -DVM_TRACE_FST=0 -DVM_TRACE_VCD=1 -faligned-new -fcf-protection=none -Wno-bool-operation -Wno-sign-compare -Wno-uninitialized -Wno-unused-but-set-variable -Wno-unused-parameter -Wno-unused-variable -Wno-shadow     -DVL_DEBUG  -pg -std=gnu++14 -Os -c -o Vtb_top.o Vtb_top.cpp
ccache g++  -I.  -MMD -I/work/home/zxluan/verilator/share/verilator/include -I/work/home/zxluan/verilator/share/verilator/include/vltstd -DVM_COVERAGE=0 -DVM_SC=0 -DVM_TRACE=1 -DVM_TRACE_FST=0 -DVM_TRACE_VCD=1 -faligned-new -fcf-protection=none -Wno-bool-operation -Wno-sign-compare -Wno-uninitialized -Wno-unused-but-set-variable -Wno-unused-parameter -Wno-unused-variable -Wno-shadow     -DVL_DEBUG  -pg -std=gnu++14 -Os -c -o Vtb_top___024root__DepSet_h7f86b803__0.o Vtb_top___024root__DepSet_h7f86b803__0.cpp
ccache g++  -I.  -MMD -I/work/home/zxluan/verilator/share/verilator/include -I/work/home/zxluan/verilator/share/verilator/include/vltstd -DVM_COVERAGE=0 -DVM_SC=0 -DVM_TRACE=1 -DVM_TRACE_FST=0 -DVM_TRACE_VCD=1 -faligned-new -fcf-protection=none -Wno-bool-operation -Wno-sign-compare -Wno-uninitialized -Wno-unused-but-set-variable -Wno-unused-parameter -Wno-unused-variable -Wno-shadow     -DVL_DEBUG  -pg -std=gnu++14 -Os -c -o Vtb_top___024root__DepSet_h9ad02603__0.o Vtb_top___024root__DepSet_h9ad02603__0.cpp
ccache g++  -I.  -MMD -I/work/home/zxluan/verilator/share/verilator/include -I/work/home/zxluan/verilator/share/verilator/include/vltstd -DVM_COVERAGE=0 -DVM_SC=0 -DVM_TRACE=1 -DVM_TRACE_FST=0 -DVM_TRACE_VCD=1 -faligned-new -fcf-protection=none -Wno-bool-operation -Wno-sign-compare -Wno-uninitialized -Wno-unused-but-set-variable -Wno-unused-parameter -Wno-unused-variable -Wno-shadow     -DVL_DEBUG  -pg -std=gnu++14 -Os -c -o Vtb_top_tb_top__DepSet_h54936347__0.o Vtb_top_tb_top__DepSet_h54936347__0.cpp
ccache g++  -I.  -MMD -I/work/home/zxluan/verilator/share/verilator/include -I/work/home/zxluan/verilator/share/verilator/include/vltstd -DVM_COVERAGE=0 -DVM_SC=0 -DVM_TRACE=1 -DVM_TRACE_FST=0 -DVM_TRACE_VCD=1 -faligned-new -fcf-protection=none -Wno-bool-operation -Wno-sign-compare -Wno-uninitialized -Wno-unused-but-set-variable -Wno-unused-parameter -Wno-unused-variable -Wno-shadow     -DVL_DEBUG  -pg -std=gnu++14 -Os -c -o Vtb_top_tb_top__DepSet_hbfdbe147__0.o Vtb_top_tb_top__DepSet_hbfdbe147__0.cpp
ccache g++  -I.  -MMD -I/work/home/zxluan/verilator/share/verilator/include -I/work/home/zxluan/verilator/share/verilator/include/vltstd -DVM_COVERAGE=0 -DVM_SC=0 -DVM_TRACE=1 -DVM_TRACE_FST=0 -DVM_TRACE_VCD=1 -faligned-new -fcf-protection=none -Wno-bool-operation -Wno-sign-compare -Wno-uninitialized -Wno-unused-but-set-variable -Wno-unused-parameter -Wno-unused-variable -Wno-shadow     -DVL_DEBUG  -pg -std=gnu++14 -Os -c -o Vtb_top_tb_top__DepSet_hbfdbe147__1.o Vtb_top_tb_top__DepSet_hbfdbe147__1.cpp
ccache g++  -I.  -MMD -I/work/home/zxluan/verilator/share/verilator/include -I/work/home/zxluan/verilator/share/verilator/include/vltstd -DVM_COVERAGE=0 -DVM_SC=0 -DVM_TRACE=1 -DVM_TRACE_FST=0 -DVM_TRACE_VCD=1 -faligned-new -fcf-protection=none -Wno-bool-operation -Wno-sign-compare -Wno-uninitialized -Wno-unused-but-set-variable -Wno-unused-parameter -Wno-unused-variable -Wno-shadow     -DVL_DEBUG  -pg -std=gnu++14 -Os -c -o Vtb_top_tb_top__DepSet_hbfdbe147__2.o Vtb_top_tb_top__DepSet_hbfdbe147__2.cpp
ccache g++  -I.  -MMD -I/work/home/zxluan/verilator/share/verilator/include -I/work/home/zxluan/verilator/share/verilator/include/vltstd -DVM_COVERAGE=0 -DVM_SC=0 -DVM_TRACE=1 -DVM_TRACE_FST=0 -DVM_TRACE_VCD=1 -faligned-new -fcf-protection=none -Wno-bool-operation -Wno-sign-compare -Wno-uninitialized -Wno-unused-but-set-variable -Wno-unused-parameter -Wno-unused-variable -Wno-shadow     -DVL_DEBUG  -pg -std=gnu++14 -Os -c -o Vtb_top_tb_top__DepSet_hbfdbe147__3.o Vtb_top_tb_top__DepSet_hbfdbe147__3.cpp
ccache g++  -I.  -MMD -I/work/home/zxluan/verilator/share/verilator/include -I/work/home/zxluan/verilator/share/verilator/include/vltstd -DVM_COVERAGE=0 -DVM_SC=0 -DVM_TRACE=1 -DVM_TRACE_FST=0 -DVM_TRACE_VCD=1 -faligned-new -fcf-protection=none -Wno-bool-operation -Wno-sign-compare -Wno-uninitialized -Wno-unused-but-set-variable -Wno-unused-parameter -Wno-unused-variable -Wno-shadow     -DVL_DEBUG  -pg -std=gnu++14 -Os -c -o Vtb_top_tb_top__DepSet_hbfdbe147__4.o Vtb_top_tb_top__DepSet_hbfdbe147__4.cpp
ccache g++  -I.  -MMD -I/work/home/zxluan/verilator/share/verilator/include -I/work/home/zxluan/verilator/share/verilator/include/vltstd -DVM_COVERAGE=0 -DVM_SC=0 -DVM_TRACE=1 -DVM_TRACE_FST=0 -DVM_TRACE_VCD=1 -faligned-new -fcf-protection=none -Wno-bool-operation -Wno-sign-compare -Wno-uninitialized -Wno-unused-but-set-variable -Wno-unused-parameter -Wno-unused-variable -Wno-shadow     -DVL_DEBUG  -pg -std=gnu++14 -Os -c -o Vtb_top_tb_top__DepSet_hbfdbe147__5.o Vtb_top_tb_top__DepSet_hbfdbe147__5.cpp
ccache g++  -I.  -MMD -I/work/home/zxluan/verilator/share/verilator/include -I/work/home/zxluan/verilator/share/verilator/include/vltstd -DVM_COVERAGE=0 -DVM_SC=0 -DVM_TRACE=1 -DVM_TRACE_FST=0 -DVM_TRACE_VCD=1 -faligned-new -fcf-protection=none -Wno-bool-operation -Wno-sign-compare -Wno-uninitialized -Wno-unused-but-set-variable -Wno-unused-parameter -Wno-unused-variable -Wno-shadow     -DVL_DEBUG  -pg -std=gnu++14 -Os -c -o Vtb_top_tb_top__DepSet_hbfdbe147__6.o Vtb_top_tb_top__DepSet_hbfdbe147__6.cpp
ccache g++  -I.  -MMD -I/work/home/zxluan/verilator/share/verilator/include -I/work/home/zxluan/verilator/share/verilator/include/vltstd -DVM_COVERAGE=0 -DVM_SC=0 -DVM_TRACE=1 -DVM_TRACE_FST=0 -DVM_TRACE_VCD=1 -faligned-new -fcf-protection=none -Wno-bool-operation -Wno-sign-compare -Wno-uninitialized -Wno-unused-but-set-variable -Wno-unused-parameter -Wno-unused-variable -Wno-shadow     -DVL_DEBUG  -pg -std=gnu++14 -Os -c -o Vtb_top_tb_top__DepSet_hbfdbe147__7.o Vtb_top_tb_top__DepSet_hbfdbe147__7.cpp
ccache g++  -I.  -MMD -I/work/home/zxluan/verilator/share/verilator/include -I/work/home/zxluan/verilator/share/verilator/include/vltstd -DVM_COVERAGE=0 -DVM_SC=0 -DVM_TRACE=1 -DVM_TRACE_FST=0 -DVM_TRACE_VCD=1 -faligned-new -fcf-protection=none -Wno-bool-operation -Wno-sign-compare -Wno-uninitialized -Wno-unused-but-set-variable -Wno-unused-parameter -Wno-unused-variable -Wno-shadow     -DVL_DEBUG  -pg -std=gnu++14 -Os -c -o Vtb_top_tb_top__DepSet_hbfdbe147__8.o Vtb_top_tb_top__DepSet_hbfdbe147__8.cpp
ccache g++  -I.  -MMD -I/work/home/zxluan/verilator/share/verilator/include -I/work/home/zxluan/verilator/share/verilator/include/vltstd -DVM_COVERAGE=0 -DVM_SC=0 -DVM_TRACE=1 -DVM_TRACE_FST=0 -DVM_TRACE_VCD=1 -faligned-new -fcf-protection=none -Wno-bool-operation -Wno-sign-compare -Wno-uninitialized -Wno-unused-but-set-variable -Wno-unused-parameter -Wno-unused-variable -Wno-shadow     -DVL_DEBUG  -pg -std=gnu++14 -Os -c -o Vtb_top_dpram64_2r1w__pi1__DepSet_h886c78e5__0.o Vtb_top_dpram64_2r1w__pi1__DepSet_h886c78e5__0.cpp
ccache g++  -I.  -MMD -I/work/home/zxluan/verilator/share/verilator/include -I/work/home/zxluan/verilator/share/verilator/include/vltstd -DVM_COVERAGE=0 -DVM_SC=0 -DVM_TRACE=1 -DVM_TRACE_FST=0 -DVM_TRACE_VCD=1 -faligned-new -fcf-protection=none -Wno-bool-operation -Wno-sign-compare -Wno-uninitialized -Wno-unused-but-set-variable -Wno-unused-parameter -Wno-unused-variable -Wno-shadow     -DVL_DEBUG  -pg -std=gnu++14 -Os -c -o Vtb_top_dpram64_2r1w__pi1__DepSet_he32ae6e5__0.o Vtb_top_dpram64_2r1w__pi1__DepSet_he32ae6e5__0.cpp
ccache g++  -I.  -MMD -I/work/home/zxluan/verilator/share/verilator/include -I/work/home/zxluan/verilator/share/verilator/include/vltstd -DVM_COVERAGE=0 -DVM_SC=0 -DVM_TRACE=1 -DVM_TRACE_FST=0 -DVM_TRACE_VCD=1 -faligned-new -fcf-protection=none -Wno-bool-operation -Wno-sign-compare -Wno-uninitialized -Wno-unused-but-set-variable -Wno-unused-parameter -Wno-unused-variable -Wno-shadow     -DVL_DEBUG  -pg -std=gnu++14 -Os -c -o Vtb_top_MuxOH__I20_D35__DepSet_h9ff10b23__0.o Vtb_top_MuxOH__I20_D35__DepSet_h9ff10b23__0.cpp
ccache g++  -I.  -MMD -I/work/home/zxluan/verilator/share/verilator/include -I/work/home/zxluan/verilator/share/verilator/include/vltstd -DVM_COVERAGE=0 -DVM_SC=0 -DVM_TRACE=1 -DVM_TRACE_FST=0 -DVM_TRACE_VCD=1 -faligned-new -fcf-protection=none -Wno-bool-operation -Wno-sign-compare -Wno-uninitialized -Wno-unused-but-set-variable -Wno-unused-parameter -Wno-unused-variable -Wno-shadow     -DVL_DEBUG  -pg -std=gnu++14 -Os -c -o Vtb_top_MuxOH__I20_D35__DepSet_h9ff10b23__1.o Vtb_top_MuxOH__I20_D35__DepSet_h9ff10b23__1.cpp
ccache g++  -I.  -MMD -I/work/home/zxluan/verilator/share/verilator/include -I/work/home/zxluan/verilator/share/verilator/include/vltstd -DVM_COVERAGE=0 -DVM_SC=0 -DVM_TRACE=1 -DVM_TRACE_FST=0 -DVM_TRACE_VCD=1 -faligned-new -fcf-protection=none -Wno-bool-operation -Wno-sign-compare -Wno-uninitialized -Wno-unused-but-set-variable -Wno-unused-parameter -Wno-unused-variable -Wno-shadow     -DVL_DEBUG  -pg -std=gnu++14 -Os -c -o Vtb_top_MuxOH__I20_D35__DepSet_h9ff10b23__2.o Vtb_top_MuxOH__I20_D35__DepSet_h9ff10b23__2.cpp
ccache g++  -I.  -MMD -I/work/home/zxluan/verilator/share/verilator/include -I/work/home/zxluan/verilator/share/verilator/include/vltstd -DVM_COVERAGE=0 -DVM_SC=0 -DVM_TRACE=1 -DVM_TRACE_FST=0 -DVM_TRACE_VCD=1 -faligned-new -fcf-protection=none -Wno-bool-operation -Wno-sign-compare -Wno-uninitialized -Wno-unused-but-set-variable -Wno-unused-parameter -Wno-unused-variable -Wno-shadow     -DVL_DEBUG  -pg -std=gnu++14 -Os -c -o Vtb_top_PLRU__E20__DepSet_hb54bf42a__0.o Vtb_top_PLRU__E20__DepSet_hb54bf42a__0.cpp
ccache g++  -I.  -MMD -I/work/home/zxluan/verilator/share/verilator/include -I/work/home/zxluan/verilator/share/verilator/include/vltstd -DVM_COVERAGE=0 -DVM_SC=0 -DVM_TRACE=1 -DVM_TRACE_FST=0 -DVM_TRACE_VCD=1 -faligned-new -fcf-protection=none -Wno-bool-operation -Wno-sign-compare -Wno-uninitialized -Wno-unused-but-set-variable -Wno-unused-parameter -Wno-unused-variable -Wno-shadow     -DVL_DEBUG  -pg -std=gnu++14 -Os -c -o Vtb_top_PLRU__E20__DepSet_h9dd05ba0__0.o Vtb_top_PLRU__E20__DepSet_h9dd05ba0__0.cpp
ccache g++  -I.  -MMD -I/work/home/zxluan/verilator/share/verilator/include -I/work/home/zxluan/verilator/share/verilator/include/vltstd -DVM_COVERAGE=0 -DVM_SC=0 -DVM_TRACE=1 -DVM_TRACE_FST=0 -DVM_TRACE_VCD=1 -faligned-new -fcf-protection=none -Wno-bool-operation -Wno-sign-compare -Wno-uninitialized -Wno-unused-but-set-variable -Wno-unused-parameter -Wno-unused-variable -Wno-shadow     -DVL_DEBUG  -pg -std=gnu++14 -Os -c -o Vtb_top__Dpi.o Vtb_top__Dpi.cpp
ccache g++  -I.  -MMD -I/work/home/zxluan/verilator/share/verilator/include -I/work/home/zxluan/verilator/share/verilator/include/vltstd -DVM_COVERAGE=0 -DVM_SC=0 -DVM_TRACE=1 -DVM_TRACE_FST=0 -DVM_TRACE_VCD=1 -faligned-new -fcf-protection=none -Wno-bool-operation -Wno-sign-compare -Wno-uninitialized -Wno-unused-but-set-variable -Wno-unused-parameter -Wno-unused-variable -Wno-shadow     -DVL_DEBUG  -pg -std=gnu++14 -Os -c -o Vtb_top__Trace__0.o Vtb_top__Trace__0.cpp
ccache g++  -I.  -MMD -I/work/home/zxluan/verilator/share/verilator/include -I/work/home/zxluan/verilator/share/verilator/include/vltstd -DVM_COVERAGE=0 -DVM_SC=0 -DVM_TRACE=1 -DVM_TRACE_FST=0 -DVM_TRACE_VCD=1 -faligned-new -fcf-protection=none -Wno-bool-operation -Wno-sign-compare -Wno-uninitialized -Wno-unused-but-set-variable -Wno-unused-parameter -Wno-unused-variable -Wno-shadow     -DVL_DEBUG  -pg -std=gnu++14 -Os -c -o Vtb_top__Trace__1.o Vtb_top__Trace__1.cpp
ccache g++  -I.  -MMD -I/work/home/zxluan/verilator/share/verilator/include -I/work/home/zxluan/verilator/share/verilator/include/vltstd -DVM_COVERAGE=0 -DVM_SC=0 -DVM_TRACE=1 -DVM_TRACE_FST=0 -DVM_TRACE_VCD=1 -faligned-new -fcf-protection=none -Wno-bool-operation -Wno-sign-compare -Wno-uninitialized -Wno-unused-but-set-variable -Wno-unused-parameter -Wno-unused-variable -Wno-shadow     -DVL_DEBUG  -pg -std=gnu++14  -c -o Vtb_top__ConstPool_0.o Vtb_top__ConstPool_0.cpp
ccache g++  -I.  -MMD -I/work/home/zxluan/verilator/share/verilator/include -I/work/home/zxluan/verilator/share/verilator/include/vltstd -DVM_COVERAGE=0 -DVM_SC=0 -DVM_TRACE=1 -DVM_TRACE_FST=0 -DVM_TRACE_VCD=1 -faligned-new -fcf-protection=none -Wno-bool-operation -Wno-sign-compare -Wno-uninitialized -Wno-unused-but-set-variable -Wno-unused-parameter -Wno-unused-variable -Wno-shadow     -DVL_DEBUG  -pg -std=gnu++14  -c -o Vtb_top___024root__Slow.o Vtb_top___024root__Slow.cpp
ccache g++  -I.  -MMD -I/work/home/zxluan/verilator/share/verilator/include -I/work/home/zxluan/verilator/share/verilator/include/vltstd -DVM_COVERAGE=0 -DVM_SC=0 -DVM_TRACE=1 -DVM_TRACE_FST=0 -DVM_TRACE_VCD=1 -faligned-new -fcf-protection=none -Wno-bool-operation -Wno-sign-compare -Wno-uninitialized -Wno-unused-but-set-variable -Wno-unused-parameter -Wno-unused-variable -Wno-shadow     -DVL_DEBUG  -pg -std=gnu++14  -c -o Vtb_top___024root__DepSet_h7f86b803__0__Slow.o Vtb_top___024root__DepSet_h7f86b803__0__Slow.cpp
ccache g++  -I.  -MMD -I/work/home/zxluan/verilator/share/verilator/include -I/work/home/zxluan/verilator/share/verilator/include/vltstd -DVM_COVERAGE=0 -DVM_SC=0 -DVM_TRACE=1 -DVM_TRACE_FST=0 -DVM_TRACE_VCD=1 -faligned-new -fcf-protection=none -Wno-bool-operation -Wno-sign-compare -Wno-uninitialized -Wno-unused-but-set-variable -Wno-unused-parameter -Wno-unused-variable -Wno-shadow     -DVL_DEBUG  -pg -std=gnu++14  -c -o Vtb_top___024root__DepSet_h9ad02603__0__Slow.o Vtb_top___024root__DepSet_h9ad02603__0__Slow.cpp
ccache g++  -I.  -MMD -I/work/home/zxluan/verilator/share/verilator/include -I/work/home/zxluan/verilator/share/verilator/include/vltstd -DVM_COVERAGE=0 -DVM_SC=0 -DVM_TRACE=1 -DVM_TRACE_FST=0 -DVM_TRACE_VCD=1 -faligned-new -fcf-protection=none -Wno-bool-operation -Wno-sign-compare -Wno-uninitialized -Wno-unused-but-set-variable -Wno-unused-parameter -Wno-unused-variable -Wno-shadow     -DVL_DEBUG  -pg -std=gnu++14  -c -o Vtb_top_tb_top__Slow.o Vtb_top_tb_top__Slow.cpp
ccache g++  -I.  -MMD -I/work/home/zxluan/verilator/share/verilator/include -I/work/home/zxluan/verilator/share/verilator/include/vltstd -DVM_COVERAGE=0 -DVM_SC=0 -DVM_TRACE=1 -DVM_TRACE_FST=0 -DVM_TRACE_VCD=1 -faligned-new -fcf-protection=none -Wno-bool-operation -Wno-sign-compare -Wno-uninitialized -Wno-unused-but-set-variable -Wno-unused-parameter -Wno-unused-variable -Wno-shadow     -DVL_DEBUG  -pg -std=gnu++14  -c -o Vtb_top_tb_top__DepSet_h54936347__0__Slow.o Vtb_top_tb_top__DepSet_h54936347__0__Slow.cpp
ccache g++  -I.  -MMD -I/work/home/zxluan/verilator/share/verilator/include -I/work/home/zxluan/verilator/share/verilator/include/vltstd -DVM_COVERAGE=0 -DVM_SC=0 -DVM_TRACE=1 -DVM_TRACE_FST=0 -DVM_TRACE_VCD=1 -faligned-new -fcf-protection=none -Wno-bool-operation -Wno-sign-compare -Wno-uninitialized -Wno-unused-but-set-variable -Wno-unused-parameter -Wno-unused-variable -Wno-shadow     -DVL_DEBUG  -pg -std=gnu++14  -c -o Vtb_top_tb_top__DepSet_hbfdbe147__0__Slow.o Vtb_top_tb_top__DepSet_hbfdbe147__0__Slow.cpp
ccache g++  -I.  -MMD -I/work/home/zxluan/verilator/share/verilator/include -I/work/home/zxluan/verilator/share/verilator/include/vltstd -DVM_COVERAGE=0 -DVM_SC=0 -DVM_TRACE=1 -DVM_TRACE_FST=0 -DVM_TRACE_VCD=1 -faligned-new -fcf-protection=none -Wno-bool-operation -Wno-sign-compare -Wno-uninitialized -Wno-unused-but-set-variable -Wno-unused-parameter -Wno-unused-variable -Wno-shadow     -DVL_DEBUG  -pg -std=gnu++14  -c -o Vtb_top___024unit__Slow.o Vtb_top___024unit__Slow.cpp
ccache g++  -I.  -MMD -I/work/home/zxluan/verilator/share/verilator/include -I/work/home/zxluan/verilator/share/verilator/include/vltstd -DVM_COVERAGE=0 -DVM_SC=0 -DVM_TRACE=1 -DVM_TRACE_FST=0 -DVM_TRACE_VCD=1 -faligned-new -fcf-protection=none -Wno-bool-operation -Wno-sign-compare -Wno-uninitialized -Wno-unused-but-set-variable -Wno-unused-parameter -Wno-unused-variable -Wno-shadow     -DVL_DEBUG  -pg -std=gnu++14  -c -o Vtb_top___024unit__DepSet_hba4cee98__0__Slow.o Vtb_top___024unit__DepSet_hba4cee98__0__Slow.cpp
ccache g++  -I.  -MMD -I/work/home/zxluan/verilator/share/verilator/include -I/work/home/zxluan/verilator/share/verilator/include/vltstd -DVM_COVERAGE=0 -DVM_SC=0 -DVM_TRACE=1 -DVM_TRACE_FST=0 -DVM_TRACE_VCD=1 -faligned-new -fcf-protection=none -Wno-bool-operation -Wno-sign-compare -Wno-uninitialized -Wno-unused-but-set-variable -Wno-unused-parameter -Wno-unused-variable -Wno-shadow     -DVL_DEBUG  -pg -std=gnu++14  -c -o Vtb_top_dpram64_2r1w__pi1__Slow.o Vtb_top_dpram64_2r1w__pi1__Slow.cpp
ccache g++  -I.  -MMD -I/work/home/zxluan/verilator/share/verilator/include -I/work/home/zxluan/verilator/share/verilator/include/vltstd -DVM_COVERAGE=0 -DVM_SC=0 -DVM_TRACE=1 -DVM_TRACE_FST=0 -DVM_TRACE_VCD=1 -faligned-new -fcf-protection=none -Wno-bool-operation -Wno-sign-compare -Wno-uninitialized -Wno-unused-but-set-variable -Wno-unused-parameter -Wno-unused-variable -Wno-shadow     -DVL_DEBUG  -pg -std=gnu++14  -c -o Vtb_top_dpram64_2r1w__pi1__DepSet_h886c78e5__0__Slow.o Vtb_top_dpram64_2r1w__pi1__DepSet_h886c78e5__0__Slow.cpp
ccache g++  -I.  -MMD -I/work/home/zxluan/verilator/share/verilator/include -I/work/home/zxluan/verilator/share/verilator/include/vltstd -DVM_COVERAGE=0 -DVM_SC=0 -DVM_TRACE=1 -DVM_TRACE_FST=0 -DVM_TRACE_VCD=1 -faligned-new -fcf-protection=none -Wno-bool-operation -Wno-sign-compare -Wno-uninitialized -Wno-unused-but-set-variable -Wno-unused-parameter -Wno-unused-variable -Wno-shadow     -DVL_DEBUG  -pg -std=gnu++14  -c -o Vtb_top_dpram64_2r1w__pi1__DepSet_he32ae6e5__0__Slow.o Vtb_top_dpram64_2r1w__pi1__DepSet_he32ae6e5__0__Slow.cpp
ccache g++  -I.  -MMD -I/work/home/zxluan/verilator/share/verilator/include -I/work/home/zxluan/verilator/share/verilator/include/vltstd -DVM_COVERAGE=0 -DVM_SC=0 -DVM_TRACE=1 -DVM_TRACE_FST=0 -DVM_TRACE_VCD=1 -faligned-new -fcf-protection=none -Wno-bool-operation -Wno-sign-compare -Wno-uninitialized -Wno-unused-but-set-variable -Wno-unused-parameter -Wno-unused-variable -Wno-shadow     -DVL_DEBUG  -pg -std=gnu++14  -c -o Vtb_top_MuxOH__I20_D35__Slow.o Vtb_top_MuxOH__I20_D35__Slow.cpp
ccache g++  -I.  -MMD -I/work/home/zxluan/verilator/share/verilator/include -I/work/home/zxluan/verilator/share/verilator/include/vltstd -DVM_COVERAGE=0 -DVM_SC=0 -DVM_TRACE=1 -DVM_TRACE_FST=0 -DVM_TRACE_VCD=1 -faligned-new -fcf-protection=none -Wno-bool-operation -Wno-sign-compare -Wno-uninitialized -Wno-unused-but-set-variable -Wno-unused-parameter -Wno-unused-variable -Wno-shadow     -DVL_DEBUG  -pg -std=gnu++14  -c -o Vtb_top_MuxOH__I20_D35__DepSet_hea4b6f83__0__Slow.o Vtb_top_MuxOH__I20_D35__DepSet_hea4b6f83__0__Slow.cpp
ccache g++  -I.  -MMD -I/work/home/zxluan/verilator/share/verilator/include -I/work/home/zxluan/verilator/share/verilator/include/vltstd -DVM_COVERAGE=0 -DVM_SC=0 -DVM_TRACE=1 -DVM_TRACE_FST=0 -DVM_TRACE_VCD=1 -faligned-new -fcf-protection=none -Wno-bool-operation -Wno-sign-compare -Wno-uninitialized -Wno-unused-but-set-variable -Wno-unused-parameter -Wno-unused-variable -Wno-shadow     -DVL_DEBUG  -pg -std=gnu++14  -c -o Vtb_top_PLRU__E20__Slow.o Vtb_top_PLRU__E20__Slow.cpp
